<svg width="36" height="36" viewBox="0 0 36 36" fill="none" xmlns="http://www.w3.org/2000/svg">
<path fill-rule="evenodd" clip-rule="evenodd" d="M12.6 7.2C12.6 5.76783 13.1689 4.39432 14.1816 3.38163C15.1943 2.36893 16.5678 1.8 18 1.8C19.4322 1.8 20.8057 2.36893 21.8184 3.38163C22.8311 4.39432 23.4 5.76783 23.4 7.2V14.4C23.4 15.8322 22.8311 17.2057 21.8184 18.2184C20.8057 19.2311 19.4322 19.8 18 19.8C16.5678 19.8 15.1943 19.2311 14.1816 18.2184C13.1689 17.2057 12.6 15.8322 12.6 14.4V7.2ZM19.8 26.874C22.7992 26.4407 25.5418 24.9412 27.5253 22.6503C29.5088 20.3593 30.6004 17.4303 30.6 14.4C30.6 13.9226 30.4104 13.4648 30.0728 13.1272C29.7352 12.7896 29.2774 12.6 28.8 12.6C28.3226 12.6 27.8648 12.7896 27.5272 13.1272C27.1896 13.4648 27 13.9226 27 14.4C27 16.787 26.0518 19.0761 24.364 20.764C22.6761 22.4518 20.3869 23.4 18 23.4C15.613 23.4 13.3239 22.4518 11.636 20.764C9.94821 19.0761 8.99999 16.787 8.99999 14.4C8.99999 13.9226 8.81035 13.4648 8.47279 13.1272C8.13522 12.7896 7.67738 12.6 7.19999 12.6C6.7226 12.6 6.26477 12.7896 5.9272 13.1272C5.58964 13.4648 5.39999 13.9226 5.39999 14.4C5.39959 17.4303 6.49115 20.3593 8.47467 22.6503C10.4582 24.9412 13.2008 26.4407 16.2 26.874V30.6H10.8C10.3226 30.6 9.86477 30.7896 9.5272 31.1272C9.18964 31.4648 8.99999 31.9226 8.99999 32.4C8.99999 32.8774 9.18964 33.3352 9.5272 33.6728C9.86477 34.0104 10.3226 34.2 10.8 34.2H25.2C25.6774 34.2 26.1352 34.0104 26.4728 33.6728C26.8104 33.3352 27 32.8774 27 32.4C27 31.9226 26.8104 31.4648 26.4728 31.1272C26.1352 30.7896 25.6774 30.6 25.2 30.6H19.8V26.874Z" fill="white"/>
</svg>
