<svg width="46" height="46" viewBox="0 0 46 46" fill="none" xmlns="http://www.w3.org/2000/svg">
<g opacity="0.5">
<path fill-rule="evenodd" clip-rule="evenodd" d="M23 41.4C27.88 41.4 32.5601 39.4614 36.0108 36.0108C39.4614 32.5601 41.4 27.88 41.4 23C41.4 18.12 39.4614 13.4399 36.0108 9.98924C32.5601 6.53857 27.88 4.60001 23 4.60001C18.12 4.60001 13.4399 6.53857 9.98923 9.98924C6.53856 13.4399 4.6 18.12 4.6 23C4.6 27.88 6.53856 32.5601 9.98923 36.0108C13.4399 39.4614 18.12 41.4 23 41.4V41.4ZM18.4 16.1C17.79 16.1 17.205 16.3423 16.7737 16.7737C16.3423 17.205 16.1 17.79 16.1 18.4V27.6C16.1 28.21 16.3423 28.795 16.7737 29.2264C17.205 29.6577 17.79 29.9 18.4 29.9H27.6C28.21 29.9 28.795 29.6577 29.2263 29.2264C29.6577 28.795 29.9 28.21 29.9 27.6V18.4C29.9 17.79 29.6577 17.205 29.2263 16.7737C28.795 16.3423 28.21 16.1 27.6 16.1H18.4Z" fill="white"/>
</g>
</svg>
